<svg id="dots" xmlns="http://www.w3.org/2000/svg" width="631.08" height="78.89" viewBox="0 0 631.08 78.89">
  <defs>
    <style>
      .cls-1 {
        fill: #ed9c0d;
      }

      .cls-2 {
        fill: #b45cfa;
      }

      .cls-3 {
        fill: #f2b007;
      }

      .cls-4 {
        fill: #b45cfb;
      }

      .cls-5 {
        fill: #ed9e0c;
      }

      .cls-6 {
        fill: #089ebb;
      }

      .cls-7 {
        fill: #8f47c9;
      }

      .cls-8 {
        fill: #0dc4d1;
      }

      .cls-9 {
        fill: #09a4bf;
      }

      .cls-10 {
        fill: #ea930f;
      }

      .cls-11 {
        fill: #af59f4;
      }

      .cls-12 {
        fill: #b25bf9;
      }

      .cls-13 {
        fill: #a956ed;
      }

      .cls-14 {
        fill: #b35cfa;
      }

      .cls-15 {
        fill: #e98f10;
      }

      .cls-16 {
        fill: #b35bf9;
      }

      .cls-17 {
        fill: #f0a909;
      }

      .cls-18 {
        fill: #0fd1d8;
      }

      .cls-19 {
        fill: #ac57f0;
      }

      .cls-20 {
        fill: #b05af5;
      }

      .cls-21 {
        fill: #7e3cb2;
      }

      .cls-22 {
        fill: #0ec6d2;
      }

      .cls-23 {
        fill: #0ec7d3;
      }

      .cls-24 {
        fill: #f1ab09;
      }

      .cls-25 {
        fill: #b55dfc;
      }

      .cls-26 {
        fill: #f1a909;
      }

      .cls-27 {
        fill: #0dbfce;
      }

      .cls-28 {
        fill: #0fd2d9;
      }

      .cls-29 {
        fill: #ae59f2;
      }

      .cls-30 {
        fill: #f0a80a;
      }

      .cls-31 {
        fill: #aa56ed;
      }

      .cls-32 {
        fill: #0eccd5;
      }

      .cls-33 {
        fill: #f0a60a;
      }

      .cls-34 {
        fill: #a755ea;
      }

      .cls-35 {
        fill: #0fced6;
      }

      .cls-36 {
        fill: #f3b107;
      }

      .cls-37 {
        fill: #ae59f3;
      }

      .cls-38 {
        fill: #f1aa09;
      }

      .cls-39 {
        fill: #099cbb;
      }
    </style>
  </defs>
  <title>advantix-transform-01</title>
  <circle id="dot" class="cls-1" cx="36.03" cy="14.45" r="3"/>
  <circle id="dot-2" data-name="dot" class="cls-1" cx="299.66" cy="31.84" r="3"/>
  <circle id="dot-3" data-name="dot" class="cls-2" cx="319.44" cy="45.3" r="3.5"/>
  <circle id="dot-4" data-name="dot" class="cls-1" cx="330.87" cy="59.73" r="3.5"/>
  <circle id="dot-5" data-name="dot" class="cls-1" cx="319.19" cy="54.05" r="3.5"/>
  <circle id="dot-6" data-name="dot" class="cls-1" cx="101.03" cy="66.45" r="3"/>
  <circle id="dot-7" data-name="dot" class="cls-1" cx="12.03" cy="13.45" r="3"/>
  <circle id="dot-8" data-name="dot" class="cls-1" cx="26.08" cy="45.5" r="6.05"/>
  <circle id="dot-9" data-name="dot" class="cls-3" cx="311.67" cy="66.52" r="3"/>
  <circle id="dot-10" data-name="dot" class="cls-3" cx="289.48" cy="30.2" r="3"/>
  <circle id="dot-11" data-name="dot" class="cls-3" cx="300.91" cy="65.11" r="2.25"/>
  <circle id="dot-12" data-name="dot" class="cls-3" cx="297.66" cy="74.91" r="3"/>
  <circle id="dot-13" data-name="dot" class="cls-3" cx="287.95" cy="59.06" r="3"/>
  <circle id="dot-14" data-name="dot" class="cls-4" cx="580.73" cy="65.48" r="3"/>
  <circle id="dot-15" data-name="dot" class="cls-5" cx="578.78" cy="32.99" r="3.5"/>
  <circle id="dot-16" data-name="dot" class="cls-5" cx="617.25" cy="55.08" r="4"/>
  <circle id="dot-17" data-name="dot" class="cls-5" cx="552.43" cy="13.58" r="2.5"/>
  <circle id="dot-18" data-name="dot" class="cls-5" cx="583.69" cy="43.45" r="2"/>
  <circle id="dot-19" data-name="dot" class="cls-5" cx="626.83" cy="43.41" r="2"/>
  <circle id="dot-20" data-name="dot" class="cls-5" cx="600.03" cy="32.33" r="1.75"/>
  <circle id="dot-21" data-name="dot" class="cls-5" cx="625.08" cy="22.36" r="2.5"/>
  <circle id="dot-22" data-name="dot" class="cls-6" cx="626.05" cy="28.96" r="1.75"/>
  <circle id="dot-23" data-name="dot" class="cls-6" cx="614.45" cy="14.48" r="2.25"/>
  <circle id="dot-24" data-name="dot" class="cls-6" cx="616.5" cy="4.22" r="2"/>
  <circle id="dot-25" data-name="dot" class="cls-6" cx="595.8" cy="37.75" r="3"/>
  <circle id="dot-26" data-name="dot" class="cls-5" cx="614.83" cy="47.25" r="2"/>
  <circle id="dot-27" data-name="dot" class="cls-5" cx="600.28" cy="21.36" r="2.5"/>
  <circle id="dot-28" data-name="dot" class="cls-5" cx="628.33" cy="74.58" r="2.75"/>
  <circle id="dot-29" data-name="dot" class="cls-5" cx="616.03" cy="75.08" r="2"/>
  <circle id="dot-30" data-name="dot" class="cls-5" cx="548.93" cy="56.98" r="2"/>
  <circle id="dot-31" data-name="dot" class="cls-5" cx="572.31" cy="41.25" r="2.5"/>
  <circle id="dot-32" data-name="dot" class="cls-5" cx="576.44" cy="55.02" r="2"/>
  <circle id="dot-33" data-name="dot" class="cls-5" cx="588.89" cy="63.55" r="3"/>
  <circle id="dot-34" data-name="dot" class="cls-5" cx="506.16" cy="37.75" r="3"/>
  <circle id="dot-35" data-name="dot" class="cls-5" cx="530.54" cy="12.42" r="3"/>
  <circle id="dot-36" data-name="dot" class="cls-7" cx="523.36" cy="30.2" r="3.5"/>
  <circle id="dot-37" data-name="dot" class="cls-5" cx="496.87" cy="26.46" r="3"/>
  <circle id="dot-38" data-name="dot" class="cls-4" cx="485.42" cy="10.77" r="2.5"/>
  <circle id="dot-39" data-name="dot" class="cls-4" cx="28.28" cy="57.7" r="3"/>
  <circle id="dot-40" data-name="dot" class="cls-4" cx="152.03" cy="6.45" r="3"/>
  <circle id="dot-41" data-name="dot" class="cls-4" cx="217.28" cy="27.7" r="3"/>
  <circle id="dot-42" data-name="dot" class="cls-4" cx="226.47" cy="30.02" r="3.75"/>
  <circle id="dot-43" data-name="dot" class="cls-4" cx="260.12" cy="38.67" r="4"/>
  <circle id="dot-44" data-name="dot" class="cls-4" cx="346.78" cy="20.7" r="3.75"/>
  <circle id="dot-45" data-name="dot" class="cls-4" cx="346.13" cy="51.45" r="3"/>
  <circle id="dot-46" data-name="dot" class="cls-4" cx="385.98" cy="12.38" r="4.5"/>
  <circle id="dot-47" data-name="dot" class="cls-7" cx="168.23" cy="57.13" r="5.08"/>
  <circle id="dot-48" data-name="dot" class="cls-7" cx="67.45" cy="75.03" r="2.42"/>
  <circle id="dot-49" data-name="dot" class="cls-7" cx="36.78" cy="60.7" r="2"/>
  <circle id="dot-50" data-name="dot" class="cls-7" cx="53.78" cy="5.7" r="3.09"/>
  <circle id="dot-51" data-name="dot" class="cls-7" cx="75.78" cy="21.7" r="5.22"/>
  <circle id="dot-52" data-name="dot" class="cls-7" cx="66.44" cy="12.36" r="2.06"/>
  <circle id="dot-53" data-name="dot" class="cls-4" cx="66.33" cy="19.16" r="2.95"/>
  <circle id="dot-54" data-name="dot" class="cls-7" cx="21.78" cy="16.7" r="2.09"/>
  <circle id="dot-55" data-name="dot" class="cls-7" cx="33.78" cy="24.7" r="4.59"/>
  <circle id="dot-56" data-name="dot" class="cls-1" cx="23.28" cy="24.2" r="3.09"/>
  <circle id="dot-57" data-name="dot" class="cls-1" cx="35.33" cy="53.75" r="3.39"/>
  <circle id="dot-58" data-name="dot" class="cls-1" cx="22.53" cy="63.55" r="2.34"/>
  <circle id="dot-59" data-name="dot" class="cls-7" cx="28.28" cy="74.8" r="3.09"/>
  <circle id="dot-60" data-name="dot" class="cls-7" cx="21.8" cy="76.09" r="1.8"/>
  <circle id="dot-61" data-name="dot" class="cls-7" cx="3.2" cy="13.69" r="3.2"/>
  <circle id="dot-62" data-name="dot" class="cls-7" cx="11.61" cy="6.28" r="2.61"/>
  <circle id="dot-63" data-name="dot" class="cls-7" cx="29.27" cy="11.63" r="2.27"/>
  <circle id="dot-64" data-name="dot" class="cls-6" cx="29.27" cy="4.63" r="2.27"/>
  <circle id="dot-65" data-name="dot" class="cls-4" cx="36.86" cy="6.03" r="3.86"/>
  <circle id="dot-66" data-name="dot" class="cls-4" cx="45.86" cy="12.03" r="4.67"/>
  <circle id="dot-67" data-name="dot" class="cls-1" cx="44.95" cy="3.94" r="1.77"/>
  <circle id="dot-68" data-name="dot" class="cls-8" cx="54.61" cy="13.28" r="2.42"/>
  <circle id="dot-69" data-name="dot" class="cls-7" cx="258.36" cy="11.38" r="5.17"/>
  <circle id="dot-70" data-name="dot" class="cls-9" cx="4.03" cy="4.45" r="3"/>
  <circle id="dot-71" data-name="dot" class="cls-9" cx="22.95" cy="69.53" r="1.92"/>
  <circle id="dot-72" data-name="dot" class="cls-9" cx="76.3" cy="58.03" r="6.42"/>
  <circle id="dot-73" data-name="dot" class="cls-9" cx="103.3" cy="29.03" r="2.73"/>
  <circle id="dot-74" data-name="dot" class="cls-10" cx="113.3" cy="20.03" r="4.42"/>
  <circle id="dot-75" data-name="dot" class="cls-10" cx="66.64" cy="5.38" r="3.08"/>
  <circle id="dot-76" data-name="dot" class="cls-9" cx="67.2" cy="27.13" r="2.58"/>
  <circle id="dot-77" data-name="dot" class="cls-10" cx="79.2" cy="31.13" r="2.58"/>
  <circle id="dot-78" data-name="dot" class="cls-10" cx="103.2" cy="46.13" r="2.58"/>
  <circle id="dot-79" data-name="dot" class="cls-9" cx="104.2" cy="53.13" r="2.58"/>
  <circle id="dot-80" data-name="dot" class="cls-7" cx="101.2" cy="59.33" r="3.08"/>
  <circle id="dot-81" data-name="dot" class="cls-11" cx="109.2" cy="58.33" r="3.08"/>
  <circle id="dot-82" data-name="dot" class="cls-7" cx="104.7" cy="73.83" r="3.58"/>
  <circle id="dot-83" data-name="dot" class="cls-1" cx="112.7" cy="74.83" r="2.64"/>
  <circle id="dot-84" data-name="dot" class="cls-9" cx="98.2" cy="38.33" r="4.14"/>
  <circle id="dot-85" data-name="dot" class="cls-7" cx="108.73" cy="38.86" r="4.67"/>
  <circle id="dot-86" data-name="dot" class="cls-12" cx="110.73" cy="28.86" r="3.02"/>
  <circle id="dot-87" data-name="dot" class="cls-12" cx="108.73" cy="11.16" r="3.55"/>
  <circle id="dot-88" data-name="dot" class="cls-10" cx="68.2" cy="47.38" r="4"/>
  <circle id="dot-89" data-name="dot" class="cls-10" cx="98.91" cy="12.42" r="4.47"/>
  <circle id="dot-90" data-name="dot" class="cls-6" cx="92.91" cy="5.42" r="3.06"/>
  <circle id="dot-91" data-name="dot" class="cls-6" cx="211.16" cy="23.14" r="2"/>
  <circle id="dot-92" data-name="dot" class="cls-6" cx="205.19" cy="40.64" r="3.06"/>
  <circle id="dot-93" data-name="dot" class="cls-6" cx="262.72" cy="64.73" r="3.06"/>
  <circle id="dot-94" data-name="dot" class="cls-7" cx="88.91" cy="39.42" r="3.66"/>
  <circle id="dot-95" data-name="dot" class="cls-13" cx="72.91" cy="11.42" r="2.75"/>
  <circle id="dot-96" data-name="dot" class="cls-13" cx="74.91" cy="4.42" r="2.25"/>
  <circle id="dot-97" data-name="dot" class="cls-7" cx="68.91" cy="36.42" r="5.34"/>
  <circle id="dot-98" data-name="dot" class="cls-6" cx="77.16" cy="37.42" r="2.16"/>
  <circle id="dot-99" data-name="dot" class="cls-12" cx="79.2" cy="47.72" r="2.86"/>
  <circle id="dot-100" data-name="dot" class="cls-12" cx="35.67" cy="41.73" r="2"/>
  <circle id="dot-101" data-name="dot" class="cls-12" cx="67.2" cy="54.72" r="1.45"/>
  <circle id="dot-102" data-name="dot" class="cls-14" cx="75.2" cy="42.72" r="1.67"/>
  <circle id="dot-103" data-name="dot" class="cls-10" cx="86.2" cy="46.72" r="2.27"/>
  <circle id="dot-104" data-name="dot" class="cls-9" cx="112.2" cy="67.13" r="4.52"/>
  <circle id="dot-105" data-name="dot" class="cls-11" cx="104.03" cy="19.45" r="2.09"/>
  <circle id="dot-106" data-name="dot" class="cls-11" cx="90.84" cy="13.64" r="2.09"/>
  <circle id="dot-107" data-name="dot" class="cls-11" cx="78.84" cy="68.64" r="2.78"/>
  <circle id="dot-108" data-name="dot" class="cls-10" cx="65.84" cy="61.64" r="2.78"/>
  <circle id="dot-109" data-name="dot" class="cls-10" cx="71.59" cy="67.89" r="3.53"/>
  <circle id="dot-110" data-name="dot" class="cls-8" cx="79.59" cy="74.89" r="2.44"/>
  <circle id="dot-111" data-name="dot" class="cls-7" cx="73.94" cy="74.55" r="1.78"/>
  <circle id="dot-112" data-name="dot" class="cls-8" cx="64.94" cy="68.55" r="1.78"/>
  <circle id="dot-113" data-name="dot" class="cls-15" cx="359.03" cy="36.3" r="3"/>
  <circle id="dot-114" data-name="dot" class="cls-16" cx="385.7" cy="37.55" r="2.5"/>
  <circle id="dot-115" data-name="dot" class="cls-16" cx="440.14" cy="68.3" r="3"/>
  <circle id="dot-116" data-name="dot" class="cls-16" cx="469.17" cy="45.66" r="3.5"/>
  <circle id="dot-117" data-name="dot" class="cls-15" cx="359.52" cy="74.83" r="1.75"/>
  <circle id="dot-118" data-name="dot" class="cls-15" cx="352.59" cy="56.73" r="3.5"/>
  <circle id="dot-119" data-name="dot" class="cls-15" cx="376.72" cy="7.81" r="3.5"/>
  <circle id="dot-120" data-name="dot" class="cls-15" cx="346.63" cy="73.55" r="3.5"/>
  <circle id="dot-121" data-name="dot" class="cls-17" cx="354.31" cy="4" r="2.09"/>
  <circle id="dot-122" data-name="dot" class="cls-17" cx="360.71" cy="14.52" r="2.09"/>
  <circle id="dot-123" data-name="dot" class="cls-17" cx="381.95" cy="3.72" r="1.75"/>
  <circle id="dot-124" data-name="dot" class="cls-6" cx="387.72" cy="3.72" r="2"/>
  <circle id="dot-125" data-name="dot" class="cls-4" cx="371.72" cy="3.45" r="2"/>
  <circle id="dot-126" data-name="dot" class="cls-4" cx="378.61" cy="14.42" r="2"/>
  <circle id="dot-127" data-name="dot" class="cls-18" cx="345.38" cy="12.83" r="2.09"/>
  <circle id="dot-128" data-name="dot" class="cls-19" cx="553.8" cy="5.47" r="3.14"/>
  <circle id="dot-129" data-name="dot" class="cls-19" cx="576.03" cy="48.34" r="3.5"/>
  <circle id="dot-130" data-name="dot" class="cls-20" cx="153.42" cy="21.84" r="2.89"/>
  <circle id="dot-131" data-name="dot" class="cls-21" cx="616.27" cy="63.27" r="2.5"/>
  <circle id="dot-132" data-name="dot" class="cls-21" cx="614.35" cy="33.43" r="2"/>
  <circle id="dot-133" data-name="dot" class="cls-21" cx="620.53" cy="26.43" r="2"/>
  <circle id="dot-134" data-name="dot" class="cls-21" cx="616.85" cy="9.61" r="1.5"/>
  <circle id="dot-135" data-name="dot" class="cls-6" cx="608.83" cy="19.36" r="3.5"/>
  <circle id="dot-136" data-name="dot" class="cls-21" cx="602.08" cy="15.72" r="2"/>
  <circle id="dot-137" data-name="dot" class="cls-21" cx="622.93" cy="5.47" r="3"/>
  <circle id="dot-138" data-name="dot" class="cls-17" cx="593.87" cy="44.47" r="2.5"/>
  <circle id="dot-139" data-name="dot" class="cls-21" cx="601.42" cy="45.5" r="3.5"/>
  <circle id="dot-140" data-name="dot" class="cls-22" cx="604.2" cy="37.45" r="3.5"/>
  <circle id="dot-141" data-name="dot" class="cls-23" cx="247.7" cy="65.95" r="2.52"/>
  <circle id="dot-142" data-name="dot" class="cls-10" cx="208.05" cy="7.72" r="6.3"/>
  <circle id="dot-143" data-name="dot" class="cls-10" cx="210.02" cy="30.86" r="3.75"/>
  <circle id="dot-144" data-name="dot" class="cls-10" cx="232.28" cy="38.95" r="4.66"/>
  <circle id="dot-145" data-name="dot" class="cls-10" cx="266" cy="47.3" r="4.66"/>
  <circle id="dot-146" data-name="dot" class="cls-10" cx="260.59" cy="22.2" r="4"/>
  <circle id="dot-147" data-name="dot" class="cls-10" cx="205.69" cy="49.8" r="3.5"/>
  <circle id="dot-148" data-name="dot" class="cls-4" cx="254.92" cy="71.89" r="5.45"/>
  <circle id="dot-149" data-name="dot" class="cls-4" cx="215.45" cy="47.33" r="5"/>
  <circle id="dot-150" data-name="dot" class="cls-4" cx="455.87" cy="57.31" r="5.45"/>
  <circle id="dot-151" data-name="dot" class="cls-4" cx="293.87" cy="38.22" r="4"/>
  <circle id="dot-152" data-name="dot" class="cls-4" cx="367.74" cy="44.8" r="4.75"/>
  <circle id="dot-153" data-name="dot" class="cls-4" cx="440.04" cy="4.8" r="4.5"/>
  <circle id="dot-154" data-name="dot" class="cls-4" cx="487.87" cy="28.58" r="4.75"/>
  <circle id="dot-155" data-name="dot" class="cls-6" cx="571.44" cy="17.92" r="5.5"/>
  <circle id="dot-156" data-name="dot" class="cls-6" cx="530" cy="23.61" r="4"/>
  <circle id="dot-157" data-name="dot" class="cls-7" cx="527.53" cy="64.02" r="5.5"/>
  <circle id="dot-158" data-name="dot" class="cls-7" cx="605.97" cy="27.8" r="4.5"/>
  <circle id="dot-159" data-name="dot" class="cls-7" cx="517.11" cy="59.69" r="4"/>
  <circle id="dot-160" data-name="dot" class="cls-17" cx="521.54" cy="49.16" r="3.5"/>
  <circle id="dot-161" data-name="dot" class="cls-17" cx="510.64" cy="50.63" r="2.5"/>
  <circle id="dot-162" data-name="dot" class="cls-7" cx="552.15" cy="40.5" r="4.5"/>
  <circle id="dot-163" data-name="dot" class="cls-4" cx="550.05" cy="64.45" r="4"/>
  <circle id="dot-164" data-name="dot" class="cls-4" cx="562.94" cy="22.86" r="3"/>
  <circle id="dot-165" data-name="dot" class="cls-4" cx="570.06" cy="6.36" r="4"/>
  <circle id="dot-166" data-name="dot" class="cls-4" cx="625.8" cy="60.05" r="4.5"/>
  <circle id="dot-167" data-name="dot" class="cls-4" cx="615.83" cy="40" r="3.5"/>
  <circle id="dot-168" data-name="dot" class="cls-24" cx="226.22" cy="16.8" r="4"/>
  <circle id="dot-169" data-name="dot" class="cls-24" cx="267.25" cy="14.52" r="3.25"/>
  <circle id="dot-170" data-name="dot" class="cls-24" cx="268" cy="38.2" r="2.5"/>
  <circle id="dot-171" data-name="dot" class="cls-6" cx="205.37" cy="18.83" r="3.31"/>
  <circle id="dot-172" data-name="dot" class="cls-6" cx="266.5" cy="30.2" r="4"/>
  <circle id="dot-173" data-name="dot" class="cls-7" cx="216.02" cy="17.38" r="4.3"/>
  <circle id="dot-174" data-name="dot" class="cls-7" cx="255.19" cy="61.98" r="3"/>
  <circle id="dot-175" data-name="dot" class="cls-7" cx="304.88" cy="71.16" r="3"/>
  <circle id="dot-176" data-name="dot" class="cls-7" cx="398.55" cy="33.3" r="4.5"/>
  <circle id="dot-177" data-name="dot" class="cls-17" cx="408.41" cy="30.8" r="3.5"/>
  <circle id="dot-178" data-name="dot" class="cls-7" cx="268" cy="60.45" r="2.25"/>
  <circle id="dot-179" data-name="dot" class="cls-7" cx="261.34" cy="3.95" r="1.5"/>
  <circle id="dot-180" data-name="dot" class="cls-7" cx="211.11" cy="58.31" r="3.5"/>
  <circle id="dot-181" data-name="dot" class="cls-6" cx="231.16" cy="23.27" r="2.94"/>
  <circle id="dot-182" data-name="dot" class="cls-6" cx="256.41" cy="47.41" r="3.15"/>
  <circle id="dot-183" data-name="dot" class="cls-6" cx="267.25" cy="5.86" r="3.4"/>
  <circle id="dot-184" data-name="dot" class="cls-6" cx="221.28" cy="10.08" r="2.94"/>
  <circle id="dot-185" data-name="dot" class="cls-6" cx="217.31" cy="36.72" r="3.25"/>
  <circle id="dot-186" data-name="dot" class="cls-6" cx="217.97" cy="57.06" r="2"/>
  <circle id="dot-187" data-name="dot" class="cls-6" cx="205.19" cy="64.8" r="2.94"/>
  <circle id="dot-188" data-name="dot" class="cls-6" cx="143.06" cy="40.48" r="6.56"/>
  <circle id="dot-189" data-name="dot" class="cls-6" cx="245.55" cy="54.25" r="7.5"/>
  <circle id="dot-190" data-name="dot" class="cls-6" cx="309.48" cy="8.31" r="6.73"/>
  <circle id="dot-191" data-name="dot" class="cls-25" cx="401.62" cy="52.2" r="6"/>
  <circle id="dot-192" data-name="dot" class="cls-6" cx="420.39" cy="70" r="7"/>
  <circle id="dot-193" data-name="dot" class="cls-6" cx="517.36" cy="39.23" r="5.5"/>
  <circle id="dot-194" data-name="dot" class="cls-7" cx="487.59" cy="65.55" r="4.5"/>
  <circle id="dot-195" data-name="dot" class="cls-6" cx="506.04" cy="5.72" r="4"/>
  <circle id="dot-196" data-name="dot" class="cls-6" cx="594.89" cy="54.83" r="6.5"/>
  <circle id="dot-197" data-name="dot" class="cls-22" cx="622.88" cy="13.67" r="4.5"/>
  <circle id="dot-198" data-name="dot" class="cls-6" cx="325.09" cy="20.36" r="2"/>
  <circle id="dot-199" data-name="dot" class="cls-6" cx="359.59" cy="57.58" r="2"/>
  <circle id="dot-200" data-name="dot" class="cls-6" cx="364.99" cy="36.66" r="1.75"/>
  <circle id="dot-201" data-name="dot" class="cls-6" cx="376.91" cy="46.36" r="2.5"/>
  <circle id="dot-202" data-name="dot" class="cls-4" cx="345.34" cy="59.58" r="2.25"/>
  <circle id="dot-203" data-name="dot" class="cls-6" cx="353.78" cy="74.48" r="2.5"/>
  <circle id="dot-204" data-name="dot" class="cls-6" cx="349.09" cy="66.22" r="2.5"/>
  <circle id="dot-205" data-name="dot" class="cls-6" cx="325.73" cy="41" r="2.5"/>
  <circle id="dot-206" data-name="dot" class="cls-6" cx="324.89" cy="57.33" r="1.5"/>
  <circle id="dot-207" data-name="dot" class="cls-6" cx="283.48" cy="27.55" r="1.5"/>
  <circle id="dot-208" data-name="dot" class="cls-6" cx="306.16" cy="65.67" r="1.5"/>
  <circle id="dot-209" data-name="dot" class="cls-6" cx="297.66" cy="69.11" r="1.5"/>
  <circle id="dot-210" data-name="dot" class="cls-6" cx="327.84" cy="67.02" r="2.5"/>
  <circle id="dot-211" data-name="dot" class="cls-6" cx="311.92" cy="46.86" r="2.5"/>
  <circle id="dot-212" data-name="dot" class="cls-6" cx="345.63" cy="43.02" r="2.5"/>
  <circle id="dot-213" data-name="dot" class="cls-6" cx="370.94" cy="36.95" r="2"/>
  <circle id="dot-214" data-name="dot" class="cls-6" cx="358.71" cy="29.8" r="2"/>
  <circle id="dot-215" data-name="dot" class="cls-6" cx="369.99" cy="13.77" r="3"/>
  <circle id="dot-216" data-name="dot" class="cls-6" cx="302.81" cy="41.8" r="4"/>
  <circle id="dot-217" data-name="dot" class="cls-6" cx="356.53" cy="21.39" r="4.5"/>
  <circle id="dot-218" data-name="dot" class="cls-16" cx="353.02" cy="11.86" r="4"/>
  <circle id="dot-219" data-name="dot" class="cls-6" cx="384.72" cy="45.58" r="3.5"/>
  <circle id="dot-220" data-name="dot" class="cls-6" cx="294.97" cy="24.36" r="4"/>
  <circle id="dot-221" data-name="dot" class="cls-6" cx="294.88" cy="62.86" r="2.5"/>
  <circle id="dot-222" data-name="dot" class="cls-6" cx="281.23" cy="67.27" r="2.5"/>
  <circle id="dot-223" data-name="dot" class="cls-8" cx="82.77" cy="8.78" r="5.73"/>
  <circle id="dot-224" data-name="dot" class="cls-16" cx="328.56" cy="49.73" r="5.03"/>
  <circle id="dot-225" data-name="dot" class="cls-16" cx="357.34" cy="66.8" r="4.5"/>
  <circle id="dot-226" data-name="dot" class="cls-16" cx="328.56" cy="11.86" r="4"/>
  <circle id="dot-227" data-name="dot" class="cls-16" cx="289.5" cy="69.97" r="5.03"/>
  <circle id="dot-228" data-name="dot" class="cls-14" cx="94.98" cy="51.59" r="5.45"/>
  <circle id="dot-229" data-name="dot" class="cls-26" cx="319.94" cy="15.05" r="3.77"/>
  <circle id="dot-230" data-name="dot" class="cls-26" cx="299.81" cy="14.77" r="3.5"/>
  <circle id="dot-231" data-name="dot" class="cls-26" cx="285.73" cy="20.75" r="3.77"/>
  <circle id="dot-232" data-name="dot" class="cls-13" cx="25.08" cy="33.5" r="3.77"/>
  <circle id="dot-233" data-name="dot" class="cls-27" cx="217.33" cy="73.25" r="3.77"/>
  <circle id="dot-234" data-name="dot" class="cls-17" cx="242.86" cy="41.5" r="3.77"/>
  <circle id="dot-235" data-name="dot" class="cls-17" cx="262.75" cy="55.8" r="2.5"/>
  <circle id="dot-236" data-name="dot" class="cls-17" cx="266.3" cy="73.25" r="4"/>
  <circle id="dot-237" data-name="dot" class="cls-28" cx="401.61" cy="23.3" r="3.77"/>
  <circle id="dot-238" data-name="dot" class="cls-17" cx="316.53" cy="37.05" r="3.77"/>
  <circle id="dot-239" data-name="dot" class="cls-17" cx="377.98" cy="38.45" r="3.77"/>
  <circle id="dot-240" data-name="dot" class="cls-17" cx="346.42" cy="4.86" r="3.77"/>
  <circle id="dot-241" data-name="dot" class="cls-17" cx="288.11" cy="12.36" r="2.5"/>
  <circle id="dot-242" data-name="dot" class="cls-17" cx="348.78" cy="33.2" r="6"/>
  <circle id="dot-243" data-name="dot" class="cls-17" cx="463.7" cy="24.14" r="6"/>
  <circle id="dot-244" data-name="dot" class="cls-17" cx="494.62" cy="7.86" r="6"/>
  <circle id="dot-245" data-name="dot" class="cls-17" cx="558.44" cy="55.22" r="4.25"/>
  <circle id="dot-246" data-name="dot" class="cls-17" cx="559.83" cy="31.68" r="5.25"/>
  <circle id="dot-247" data-name="dot" class="cls-14" cx="607.83" cy="7.36" r="5.5"/>
  <circle id="dot-248" data-name="dot" class="cls-25" cx="413.16" cy="23.8" r="3"/>
  <circle id="dot-249" data-name="dot" class="cls-25" cx="457.74" cy="68.3" r="3"/>
  <circle id="dot-250" data-name="dot" class="cls-25" cx="431.77" cy="74.91" r="3.77"/>
  <circle id="dot-251" data-name="dot" class="cls-18" cx="355.83" cy="46" r="5.75"/>
  <circle id="dot-252" data-name="dot" class="cls-18" cx="364.24" cy="6.36" r="5"/>
  <circle id="dot-253" data-name="dot" class="cls-29" cx="81.73" cy="40.84" r="2.14"/>
  <circle id="dot-254" data-name="dot" class="cls-30" cx="222.58" cy="23.14" r="1.8"/>
  <circle id="dot-255" data-name="dot" class="cls-30" cx="211.11" cy="38.45" r="1.8"/>
  <circle id="dot-256" data-name="dot" class="cls-6" cx="34.78" cy="34.8" r="3.5"/>
  <circle id="dot-257" data-name="dot" class="cls-6" cx="27.78" cy="17.8" r="2.31"/>
  <circle id="dot-258" data-name="dot" class="cls-6" cx="21.78" cy="54.8" r="2.31"/>
  <circle id="dot-259" data-name="dot" class="cls-1" cx="30.62" cy="66.2" r="4"/>
  <circle id="dot-260" data-name="dot" class="cls-1" cx="20.47" cy="7.8" r="5"/>
  <circle id="dot-261" data-name="dot" class="cls-31" cx="323.89" cy="62.2" r="1.8"/>
  <circle id="dot-262" data-name="dot" class="cls-31" cx="203.8" cy="33.84" r="1.5"/>
  <circle id="dot-263" data-name="dot" class="cls-31" cx="258.91" cy="29.77" r="2"/>
  <circle id="dot-264" data-name="dot" class="cls-31" cx="268.25" cy="22.27" r="2.5"/>
  <circle id="dot-265" data-name="dot" class="cls-31" cx="254.66" cy="19.45" r="1.5"/>
  <circle id="dot-266" data-name="dot" class="cls-32" cx="292.58" cy="17.25" r="1.8"/>
  <circle id="dot-267" data-name="dot" class="cls-32" cx="286.95" cy="36.05" r="1.5"/>
  <circle id="dot-268" data-name="dot" class="cls-32" cx="294.66" cy="8" r="3.5"/>
  <circle id="dot-269" data-name="dot" class="cls-32" cx="304.27" cy="77.09" r="1.8"/>
  <circle id="dot-270" data-name="dot" class="cls-32" cx="204.05" cy="26.55" r="1.5"/>
  <circle id="dot-271" data-name="dot" class="cls-32" cx="254.42" cy="4.2" r="2"/>
  <circle id="dot-272" data-name="dot" class="cls-32" cx="254.66" cy="25.95" r="1.5"/>
  <circle id="dot-273" data-name="dot" class="cls-32" cx="233.03" cy="30.83" r="1.5"/>
  <circle id="dot-274" data-name="dot" class="cls-32" cx="254.91" cy="33.3" r="2"/>
  <circle id="dot-275" data-name="dot" class="cls-32" cx="268.75" cy="55.31" r="1.5"/>
  <circle id="dot-276" data-name="dot" class="cls-7" cx="495.37" cy="18.52" r="3.5"/>
  <circle id="dot-277" data-name="dot" class="cls-33" cx="413.33" cy="54.5" r="2.5"/>
  <circle id="dot-278" data-name="dot" class="cls-33" cx="431.79" cy="66.47" r="3"/>
  <circle id="dot-279" data-name="dot" class="cls-22" cx="548.68" cy="73.83" r="3.5"/>
  <circle id="dot-280" data-name="dot" class="cls-33" cx="403.55" cy="62.3" r="2.5"/>
  <circle id="dot-281" data-name="dot" class="cls-33" cx="432.04" cy="12.08" r="3.5"/>
  <circle id="dot-282" data-name="dot" class="cls-33" cx="454.89" cy="8.83" r="3"/>
  <circle id="dot-283" data-name="dot" class="cls-6" cx="430.29" cy="3.5" r="3.5"/>
  <circle id="dot-284" data-name="dot" class="cls-6" cx="469.17" cy="34.38" r="4.5"/>
  <circle id="dot-285" data-name="dot" class="cls-33" cx="417.08" cy="7.58" r="3.25"/>
  <circle id="dot-286" data-name="dot" class="cls-18" cx="408.59" cy="40.5" r="3.5"/>
  <circle id="dot-287" data-name="dot" class="cls-18" cx="458.55" cy="35.75" r="3.5"/>
  <circle id="dot-288" data-name="dot" class="cls-18" cx="466.55" cy="54.95" r="4"/>
  <circle id="dot-289" data-name="dot" class="cls-17" cx="459.36" cy="46.13" r="4.5"/>
  <circle id="dot-290" data-name="dot" class="cls-17" cx="495.95" cy="47.05" r="4.5"/>
  <circle id="dot-291" data-name="dot" class="cls-17" cx="531.5" cy="34.95" r="4.5"/>
  <circle id="dot-292" data-name="dot" class="cls-22" cx="588.14" cy="72.83" r="5"/>
  <circle id="dot-293" data-name="dot" class="cls-18" cx="423.28" cy="15.17" r="2.5"/>
  <circle id="dot-294" data-name="dot" class="cls-17" cx="450.64" cy="65.3" r="2.5"/>
  <circle id="dot-295" data-name="dot" class="cls-17" cx="448.35" cy="72.8" r="3.5"/>
  <circle id="dot-296" data-name="dot" class="cls-18" cx="445.04" cy="62.92" r="2"/>
  <circle id="dot-297" data-name="dot" class="cls-18" cx="448.54" cy="5.86" r="2.5"/>
  <circle id="dot-298" data-name="dot" class="cls-34" cx="310.11" cy="40.75" r="1.8"/>
  <circle id="dot-299" data-name="dot" class="cls-34" cx="300.16" cy="4.25" r="2"/>
  <circle id="dot-300" data-name="dot" class="cls-34" cx="320.69" cy="6.86" r="3.14"/>
  <circle id="dot-301" data-name="dot" class="cls-35" cx="115.08" cy="33.5" r="1.8"/>
  <circle id="dot-302" data-name="dot" class="cls-35" cx="36.08" cy="47.13" r="1.8"/>
  <circle id="dot-303" data-name="dot" class="cls-35" cx="105.78" cy="63.2" r="1.5"/>
  <circle id="dot-304" data-name="dot" class="cls-35" cx="320.44" cy="70.72" r="4.25"/>
  <circle id="dot-305" data-name="dot" class="cls-35" cx="102.08" cy="5" r="1.8"/>
  <circle id="dot-306" data-name="dot" class="cls-35" cx="73.41" cy="29.5" r="1.8"/>
  <circle id="dot-307" data-name="dot" class="cls-35" cx="37.11" cy="69.06" r="1.5"/>
  <circle id="dot-308" data-name="dot" class="cls-12" cx="117.75" cy="27.47" r="2.12"/>
  <circle id="dot-309" data-name="dot" class="cls-25" cx="35.78" cy="75.2" r="2.41"/>
  <circle id="dot-310" data-name="dot" class="cls-36" cx="396.08" cy="42.5" r="2.5"/>
  <circle id="dot-311" data-name="dot" class="cls-7" cx="411.59" cy="47.63" r="2"/>
  <circle id="dot-312" data-name="dot" class="cls-17" cx="447.29" cy="17.92" r="1.8"/>
  <circle id="dot-313" data-name="dot" class="cls-7" cx="447.28" cy="11.86" r="1.8"/>
  <circle id="dot-314" data-name="dot" class="cls-7" cx="562.58" cy="47.84" r="1.8"/>
  <circle id="dot-315" data-name="dot" class="cls-7" cx="570.77" cy="35.55" r="1.8"/>
  <circle id="dot-316" data-name="dot" class="cls-6" cx="619.08" cy="31.21" r="1.8"/>
  <circle id="dot-317" data-name="dot" class="cls-6" cx="597.82" cy="28.16" r="1.8"/>
  <circle id="dot-318" data-name="dot" class="cls-6" cx="614.52" cy="27.42" r="3"/>
  <circle id="dot-319" data-name="dot" class="cls-7" cx="629.08" cy="68.27" r="1.8"/>
  <circle id="dot-320" data-name="dot" class="cls-22" cx="615.99" cy="69.48" r="1.8"/>
  <circle id="dot-321" data-name="dot" class="cls-7" cx="621.33" cy="75.08" r="1.8"/>
  <circle id="dot-322" data-name="dot" class="cls-7" cx="577.48" cy="60.05" r="1.5"/>
  <circle id="dot-323" data-name="dot" class="cls-7" cx="577.19" cy="25.61" r="2.5"/>
  <circle id="dot-324" data-name="dot" class="cls-7" cx="538.23" cy="75.55" r="1.8"/>
  <circle id="dot-325" data-name="dot" class="cls-17" cx="457.05" cy="18.17" r="1.8"/>
  <circle id="dot-326" data-name="dot" class="cls-6" cx="452.14" cy="14.58" r="2.5"/>
  <circle id="dot-327" data-name="dot" class="cls-6" cx="485.21" cy="36.3" r="1.75"/>
  <circle id="dot-328" data-name="dot" class="cls-6" cx="535.75" cy="69.02" r="1.75"/>
  <circle id="dot-329" data-name="dot" class="cls-4" cx="498.87" cy="54.77" r="1.75"/>
  <circle id="dot-330" data-name="dot" class="cls-17" cx="489.04" cy="41" r="2.5"/>
  <circle id="dot-331" data-name="dot" class="cls-6" cx="486.12" cy="48" r="3"/>
  <circle id="dot-332" data-name="dot" class="cls-6" cx="493.37" cy="56.48" r="2.5"/>
  <circle id="dot-333" data-name="dot" class="cls-6" cx="550.4" cy="50.05" r="3.5"/>
  <circle id="dot-334" data-name="dot" class="cls-6" cx="622.58" cy="68.58" r="3.5"/>
  <circle id="dot-335" data-name="dot" class="cls-6" cx="583.39" cy="57.48" r="3.5"/>
  <circle id="dot-336" data-name="dot" class="cls-6" cx="621.08" cy="46.5" r="3.5"/>
  <circle id="dot-337" data-name="dot" class="cls-6" cx="556.77" cy="67.33" r="2"/>
  <circle id="dot-338" data-name="dot" class="cls-4" cx="561.02" cy="63.05" r="2.5"/>
  <circle id="dot-339" data-name="dot" class="cls-6" cx="495.47" cy="67.8" r="2.5"/>
  <circle id="dot-340" data-name="dot" class="cls-4" cx="491.7" cy="75.08" r="2"/>
  <circle id="dot-341" data-name="dot" class="cls-22" cx="485.79" cy="74.33" r="2.5"/>
  <circle id="dot-342" data-name="dot" class="cls-4" cx="595.37" cy="66.8" r="2.5"/>
  <circle id="dot-343" data-name="dot" class="cls-4" cx="584.25" cy="49.8" r="3"/>
  <circle id="dot-344" data-name="dot" class="cls-7" cx="464.2" cy="40.55" r="1.8"/>
  <circle id="dot-345" data-name="dot" class="cls-7" cx="460.71" cy="13.61" r="2.5"/>
  <circle id="dot-346" data-name="dot" class="cls-18" cx="415.7" cy="15.33" r="3"/>
  <circle id="dot-347" data-name="dot" class="cls-18" cx="441.27" cy="14.02" r="3.5"/>
  <circle id="dot-348" data-name="dot" class="cls-18" cx="520.36" cy="16.83" r="3"/>
  <circle id="dot-349" data-name="dot" class="cls-18" cx="522.53" cy="73.91" r="3"/>
  <circle id="dot-350" data-name="dot" class="cls-2" cx="317.94" cy="62.16" r="2.75"/>
  <circle id="dot-351" data-name="dot" class="cls-2" cx="312.03" cy="74.41" r="3.5"/>
  <circle id="dot-352" data-name="dot" class="cls-2" cx="307.41" cy="33.55" r="3.5"/>
  <circle id="dot-353" data-name="dot" class="cls-37" cx="141.08" cy="69.5" r="1.8"/>
  <circle id="dot-354" data-name="dot" class="cls-24" cx="217.63" cy="64.27" r="2.5"/>
  <circle id="dot-355" data-name="dot" class="cls-24" cx="211.66" cy="75.58" r="1.25"/>
  <circle id="dot-356" data-name="dot" class="cls-24" cx="235.59" cy="27.36" r="1.25"/>
  <circle id="dot-357" data-name="dot" class="cls-24" cx="254.42" cy="41.67" r="1.25"/>
  <circle id="dot-358" data-name="dot" class="cls-24" cx="283.98" cy="62.92" r="1.25"/>
  <circle id="dot-359" data-name="dot" class="cls-24" cx="269" cy="65.95" r="1.25"/>
  <circle id="dot-360" data-name="dot" class="cls-16" cx="455.24" cy="27.8" r="1.8"/>
  <circle id="dot-361" data-name="dot" class="cls-28" cx="422.83" cy="3.58" r="1.8"/>
  <circle id="dot-362" data-name="dot" class="cls-28" cx="439.87" cy="75.11" r="2.5"/>
  <circle id="dot-363" data-name="dot" class="cls-4" cx="418.45" cy="59.44" r="1.8"/>
  <circle id="dot-364" data-name="dot" class="cls-4" cx="409.16" cy="68.02" r="2.5"/>
  <circle id="dot-365" data-name="dot" class="cls-28" cx="410.83" cy="60.91" r="3"/>
  <circle id="dot-366" data-name="dot" class="cls-28" cx="401.59" cy="40.17" r="1.8"/>
  <circle id="dot-367" data-name="dot" class="cls-28" cx="485.38" cy="4.25" r="2"/>
  <circle id="dot-368" data-name="dot" class="cls-28" cx="516.11" cy="53.02" r="1.5"/>
  <circle id="dot-369" data-name="dot" class="cls-4" cx="515.84" cy="48.09" r="1.5"/>
  <circle id="dot-370" data-name="dot" class="cls-4" cx="536" cy="27.8" r="2.5"/>
  <circle id="dot-371" data-name="dot" class="cls-4" cx="526.53" cy="17.42" r="1.75"/>
  <circle id="dot-372" data-name="dot" class="cls-28" cx="511.18" cy="44.75" r="1.5"/>
  <circle id="dot-373" data-name="dot" class="cls-28" cx="523.79" cy="55.77" r="2.5"/>
  <circle id="dot-374" data-name="dot" class="cls-38" cx="522.03" cy="23.14" r="1.8"/>
  <circle id="dot-375" data-name="dot" class="cls-4" cx="526.5" cy="42.41" r="2.5"/>
  <circle id="dot-376" data-name="dot" class="cls-38" cx="519.11" cy="67.8" r="2"/>
  <circle id="dot-377" data-name="dot" class="cls-38" cx="530.56" cy="73.83" r="3.5"/>
  <circle id="dot-378" data-name="dot" class="cls-38" cx="556.69" cy="46.8" r="1.8"/>
  <circle id="dot-379" data-name="dot" class="cls-38" cx="535.06" cy="17.52" r="1.8"/>
  <circle id="dot-380" data-name="dot" class="cls-38" cx="514.44" cy="5.22" r="2"/>
  <circle id="dot-381" data-name="dot" class="cls-38" cx="512.93" cy="12.77" r="3.5"/>
  <circle id="dot-382" data-name="dot" class="cls-7" cx="522.36" cy="8.36" r="4.5"/>
  <circle id="dot-383" data-name="dot" class="cls-38" cx="498.22" cy="61.48" r="3"/>
  <circle id="dot-384" data-name="dot" class="cls-4" cx="503.54" cy="13.83" r="2.5"/>
  <circle id="dot-385" data-name="dot" class="cls-38" cx="498.39" cy="74.05" r="3.25"/>
  <circle id="dot-386" data-name="dot" class="cls-25" cx="118.73" cy="74.66" r="2.3"/>
  <circle id="dot-387" data-name="dot" class="cls-25" cx="135.73" cy="48.66" r="2.3"/>
  <circle id="dot-388" data-name="dot" class="cls-10" cx="145.73" cy="52.66" r="3.95"/>
  <circle id="dot-389" data-name="dot" class="cls-10" cx="162.44" cy="20.36" r="4.66"/>
  <circle id="dot-390" data-name="dot" class="cls-6" cx="166.83" cy="30.75" r="5.05"/>
  <circle id="dot-391" data-name="dot" class="cls-6" cx="170.81" cy="48.08" r="3"/>
  <circle id="dot-392" data-name="dot" class="cls-10" cx="188.31" cy="68.08" r="2.53"/>
  <circle id="dot-393" data-name="dot" class="cls-4" cx="192.53" cy="74.17" r="3.38"/>
  <circle id="dot-394" data-name="dot" class="cls-7" cx="183.53" cy="63.17" r="2.5"/>
  <circle id="dot-395" data-name="dot" class="cls-4" cx="187.75" cy="58.95" r="1.72"/>
  <circle id="dot-396" data-name="dot" class="cls-39" cx="180.84" cy="43.86" r="3"/>
  <circle id="dot-397" data-name="dot" class="cls-10" cx="174.84" cy="44.11" r="1.75"/>
  <circle id="dot-398" data-name="dot" class="cls-10" cx="93.77" cy="43.61" r="1.5"/>
  <circle id="dot-399" data-name="dot" class="cls-10" cx="171.75" cy="21.64" r="2.97"/>
  <circle id="dot-400" data-name="dot" class="cls-7" cx="175.44" cy="29.27" r="2.28"/>
  <circle id="dot-401" data-name="dot" class="cls-7" cx="169.44" cy="13.27" r="3.38"/>
  <circle id="dot-402" data-name="dot" class="cls-6" cx="162.19" cy="6.72" r="4.72"/>
  <circle id="dot-403" data-name="dot" class="cls-7" cx="168.66" cy="41.05" r="2.5"/>
  <circle id="dot-404" data-name="dot" class="cls-7" cx="235.59" cy="47.08" r="2.5"/>
  <circle id="dot-405" data-name="dot" class="cls-7" cx="217.97" cy="4.25" r="2.5"/>
  <circle id="dot-406" data-name="dot" class="cls-7" cx="238.84" cy="33.11" r="2.5"/>
  <circle id="dot-407" data-name="dot" class="cls-7" cx="256.66" cy="54.8" r="2"/>
  <circle id="dot-408" data-name="dot" class="cls-10" cx="176.38" cy="63.02" r="3.53"/>
  <circle id="dot-409" data-name="dot" class="cls-6" cx="180.84" cy="72.48" r="5"/>
  <circle id="dot-410" data-name="dot" class="cls-4" cx="179.84" cy="53.86" r="4.69"/>
  <circle id="dot-411" data-name="dot" class="cls-12" cx="155.53" cy="53.11" r="3.91"/>
  <circle id="dot-412" data-name="dot" class="cls-12" cx="136.11" cy="57.53" r="4.33"/>
  <circle id="dot-413" data-name="dot" class="cls-10" cx="129.11" cy="64.53" r="2.33"/>
  <circle id="dot-414" data-name="dot" class="cls-10" cx="127.36" cy="73.28" r="3.58"/>
  <circle id="dot-415" data-name="dot" class="cls-10" cx="205.69" cy="73.55" r="3.58"/>
  <circle id="dot-416" data-name="dot" class="cls-7" cx="135.31" cy="66.33" r="2.53"/>
  <circle id="dot-417" data-name="dot" class="cls-7" cx="204.22" cy="57.83" r="1.5"/>
  <circle id="dot-418" data-name="dot" class="cls-7" cx="211.41" cy="67.55" r="2.53"/>
  <circle id="dot-419" data-name="dot" class="cls-6" cx="135.94" cy="73.95" r="3.16"/>
  <circle id="dot-420" data-name="dot" class="cls-6" cx="144" cy="61.48" r="2.62"/>
  <circle id="dot-421" data-name="dot" class="cls-7" cx="142.83" cy="28.89" r="3.05"/>
  <circle id="dot-422" data-name="dot" class="cls-10" cx="151.83" cy="30.89" r="3.67"/>
  <circle id="dot-423" data-name="dot" class="cls-10" cx="163.48" cy="50.53" r="2.14"/>
  <circle id="dot-424" data-name="dot" class="cls-7" cx="151.83" cy="59.89" r="2.48"/>
  <circle id="dot-425" data-name="dot" class="cls-6" cx="159.41" cy="60.33" r="2.06"/>
  <circle id="dot-426" data-name="dot" class="cls-9" cx="145.59" cy="22.2" r="2.44"/>
  <circle id="dot-427" data-name="dot" class="cls-10" cx="148.59" cy="14.2" r="3"/>
  <circle id="dot-428" data-name="dot" class="cls-7" cx="156.02" cy="13.81" r="2.42"/>
  <circle id="dot-429" data-name="dot" class="cls-4" cx="486.33" cy="55.77" r="3.5"/>
  <circle id="dot-430" data-name="dot" class="cls-22" cx="569.86" cy="28.61" r="3.5"/>
  <circle id="dot-431" data-name="dot" class="cls-22" cx="561.27" cy="41.72" r="3"/>
  <circle id="dot-432" data-name="dot" class="cls-22" cx="578.53" cy="40.41" r="2.5"/>
  <circle id="dot-433" data-name="dot" class="cls-22" cx="627" cy="51.74" r="2.5"/>
  <circle id="dot-434" data-name="dot" class="cls-22" cx="561.83" cy="4.83" r="2.5"/>
  <circle id="dot-435" data-name="dot" class="cls-22" cx="553.43" cy="21.92" r="4"/>
  <circle id="dot-436" data-name="dot" class="cls-22" cx="496.12" cy="36.5" r="4.5"/>
  <circle id="dot-437" data-name="dot" class="cls-22" cx="486.46" cy="18.42" r="3.5"/>
  <circle id="dot-438" data-name="dot" class="cls-7" cx="505.01" cy="45.75" r="3.5"/>
  <circle id="dot-439" data-name="dot" class="cls-17" cx="560.52" cy="13.11" r="4"/>
  <circle id="dot-440" data-name="dot" class="cls-17" cx="624.28" cy="35.99" r="4"/>
  <circle id="dot-441" data-name="dot" class="cls-17" cx="617.52" cy="20.11" r="3.25"/>
  <circle id="dot-442" data-name="dot" class="cls-17" cx="558.84" cy="73.83" r="3.5"/>
  <circle id="dot-443" data-name="dot" class="cls-25" cx="551.05" cy="30.3" r="2.5"/>
  <circle id="dot-444" data-name="dot" class="cls-38" cx="424.83" cy="9" r="1.8"/>
  <circle id="dot-445" data-name="dot" class="cls-38" cx="462.87" cy="64" r="2.5"/>
  <circle id="dot-446" data-name="dot" class="cls-38" cx="408.14" cy="19.95" r="2"/>
  <circle id="dot-447" data-name="dot" class="cls-4" cx="409.64" cy="11.27" r="2.5"/>
  <circle id="dot-448" data-name="dot" class="cls-7" cx="404.55" cy="15.3" r="2"/>
  <circle id="dot-449" data-name="dot" class="cls-7" cx="452.39" cy="21.95" r="3"/>
  <circle id="dot-450" data-name="dot" class="cls-12" cx="176.34" cy="37.25" r="3.48"/>
</svg>
